## Interface: 80000
## Title: |cffA02C2Fbd|rUnitframes
## Version: 0
## DefaultState: Enabled
## LoadOnDemand: 0
## X-oUF: oUFbdUnitframes
## Dependencies: bdCore

init.lua
functions.lua
core.lua
bosses.lua
arena.lua